"id","login","password","email","validation","degrer","created_at","updated_at"
"1","wah","","emah@fm","1","agent","2018-10-10 11:37:24","2018-10-10 11:37:24"
"2","Chris Sevilleja","21232f297a57a5a743894a0e4a801fc3","chris@scotch.io","","chef","2018-10-10 19:52:02","2018-10-10 19:52:02"
"3","","","waha@scotch.io","","chef","2018-10-10 21:51:50","2018-10-10 21:51:50"
"4","wah","","emah@fm","","agent","2018-10-10 21:56:40","2018-10-10 21:56:40"
"5","wah","","emah@fm","","agent","2018-10-10 21:58:03","2018-10-10 21:58:03"
"6","wah","test","emah@fm","","agent","2018-10-10 21:59:33","2018-10-10 21:59:33"
"7","wah","098f6bcd4621d373cade4e832627b4f6","test@fm","1","agent","2018-10-10 22:00:42","2018-10-10 22:43:18"
